﻿thisRow.t,notes,begin_study.started,welcome_msg.started,space_welcome.started,begin_study.stopped,space_welcome.keys,space_welcome.rt,space_welcome.duration,instructions.started,instructions_msg.started,space_instr.started,instructions.stopped,space_instr.keys,space_instr.rt,space_instr.duration,crtt_instr.started,crtt_instr_msg.started,crtt_space.started,response_square.started,crtt_instr.stopped,crtt_space.keys,crtt_space.rt,crtt_space.duration,end_screen.started,end_screen_msg.started,end_screen_resp.started,end_screen.stopped,end_screen_resp.keys,end_screen_resp.rt,end_screen_resp.duration,participant,session,age,left-handed,Do you like this session?,date,expName,psychopyVersion,frameRate,expStart,
,,0.007065832964144647,0.020241166930645704,0.020241166930645704,0.785592749947682,space,0.7632602920057252,None,,,,,,,,,,,,,,,,,,,,,,,99,9,99,False,Yes,2024-02-13_12h06.14.215,choice_rtt,2023.2.3,None,2024-02-13 12h06.22.208037 +0100,
,,,,,,,,,0.7856207499280572,0.7960060830228031,0.7960060830228031,1.9600474579492584,space,1.1609712920617312,None,,,,,,,,,,,,,,,,99,9,99,False,Yes,2024-02-13_12h06.14.215,choice_rtt,2023.2.3,None,2024-02-13 12h06.22.208037 +0100,
,,,,,,,,,,,,,,,,1.9600789999822155,1.9863459169864655,1.9863459169864655,1.9863459169864655,11.806955082924105,space,9.81154854199849,None,,,,,,,,99,9,99,False,Yes,2024-02-13_12h06.14.215,choice_rtt,2023.2.3,None,2024-02-13 12h06.22.208037 +0100,
,,,,,,,,,,,,,,,,,,,,,,,,11.806991333025508,11.814754166989587,11.814754166989587,12.465236374991946,space,0.6477174169849604,None,99,9,99,False,Yes,2024-02-13_12h06.14.215,choice_rtt,2023.2.3,None,2024-02-13 12h06.22.208037 +0100,
