﻿thisRow.t,notes,begin_study.started,welcome_msg.started,space_welcome.started,begin_study.stopped,space_welcome.keys,space_welcome.rt,space_welcome.duration,instructions.started,instructions_msg.started,space_instr.started,instructions.stopped,space_instr.keys,space_instr.rt,space_instr.duration,crtt_instr.started,crtt_instr_msg.started,crtt_space.started,response_square.started,crtt_instr.stopped,crtt_space.keys,crtt_space.rt,crtt_space.duration,end_screen.started,end_screen_msg.started,end_screen_resp.started,end_screen.stopped,end_screen_resp.keys,end_screen_resp.rt,end_screen_resp.duration,participant,session,age,left-handed,Do you like this session?,date,expName,psychopyVersion,frameRate,expStart,
,,0.006959958933293819,0.01696245896164328,0.01696245896164328,0.7039631670340896,space,0.6761894579976797,None,,,,,,,,,,,,,,,,,,,,,,,99,99,99,False,Yes,2024-02-13_12h08.40.267,choice_rtt,2023.2.3,None,2024-02-13 12h08.50.246077 +0100,
,,,,,,,,,0.7040104999905452,0.718000959022902,0.718000959022902,1.43748754193075,space,0.7116907080635428,None,,,,,,,,,,,,,,,,99,99,99,False,Yes,2024-02-13_12h08.40.267,choice_rtt,2023.2.3,None,2024-02-13 12h08.50.246077 +0100,
,,,,,,,,,,,,,,,,1.4375298749655485,1.4493914999766275,1.4493914999766275,1.4493914999766275,4.404229374951683,space,2.952208291972056,None,,,,,,,,99,99,99,False,Yes,2024-02-13_12h08.40.267,choice_rtt,2023.2.3,None,2024-02-13 12h08.50.246077 +0100,
,,,,,,,,,,,,,,,,,,,,,,,,4.4042735419934615,4.415631209034473,4.415631209034473,5.544673666940071,space,1.118978708051145,None,99,99,99,False,Yes,2024-02-13_12h08.40.267,choice_rtt,2023.2.3,None,2024-02-13 12h08.50.246077 +0100,
